{
  "type": "service_account",
  "project_id": "chaayos-test",
  "private_key_id": "27996b4a4f1fb8531115c749e47456162d81ff68",
  "private_key": "-----BEGIN PRIVATE KEY-----\nMIIEvQIBADANBgkqhkiG9w0BAQEFAASCBKcwggSjAgEAAoIBAQDABVbmDL/teRzT\nI5X8ai7uase5tnDJCHV33Gwb6S85d2ir2enOAcPoQy0r4tyRBIS+j46YkQxz5Zcx\nkDX7i3Yj2qW0h/C7V/HHAJElKwJnNz8eE3yaEXRgXe/u4tm6osRoG5NxN6Y7ne1+\njv5hioJxlORZDcYmIPtGjS333xi1gyx3x5Nlbc0+WugfA6wUKQpe78g1hmKSdczo\nz1j0L2B6hOmzwUTFj/qFZr/WHMmxEWnwrw7u69TCGoZ/NG8YTQFCD2XpdJZxrATe\nKlMShTIcK0TPAcyguwHP/nj709v4JROoH1AKBjQQ7TIEF+P59B7u0n7Zw64XCb8e\nnGimXWeRAgMBAAECggEAEUCBjtRzK3qzy2gBdh7Tpd3P4Th6IGO7Sxgxmd3c3XLE\nI5mF4zl/IJdlf/GHW9ueMhFLkFtK1UBZ0c0JPpcId57xv5stlqVnfnfHcqGPOxcI\ne5MoYR7DmBNkhs/YnEc6snhUykmjzKwrHfFquziCsQH9tJ8TUBJrRQrS6BfiHE+b\nWzeAPuNvDEckp3uPhfuL+STGTwl3YRbVB6CNzehvSyNQhjYfis2WdLWP6IcXXPyh\nLoWdsq8z2dZ8zzHQwkDc4IUKlbFVzgqFINm/T5JsMYq6p20BeX+qm8BJsdPuEX1t\nuDSFs1HFuZ7gkNK3jqERxSkscFvKo+xrt01SHoTdyQKBgQDzmzPMQ4GeROhFwiRI\nfxQFCvvTmuKXWo4JuluSy9yITPqrRkrYwsO/bMMibW7nDKmIs1r/5c5MTPL4YEBH\nQWMMd+eeAv2Eoy+GSsd3CATr0+qW4qy3AdugdLU/+MnN6Tz7QIonnvTGRBAYGZIC\nOoA4R5+GiWc350sp9wNoC9dnKQKBgQDJykYpXQ4J7vH0g1+SH3pxykmY16uH704m\n3aru99Se+CwdIjlc/4ag8JtIquwjhJNDTTIMxci+yUeBLbFLgRWXRmgDmzAFsrY/\nKKY3GIofGY5Q4sQNxzaieREsAdJp83j5dZD/wIeHGQw+iuB42WMMCf+Us1PLHZWn\nTV3z41USKQKBgGStVtnraE1NsyTpWG9xvYdcA7lvQIhGz37rut7PS+Q01EAmu9Yb\noCSjwX2f9n6cuBAb99bcVcco4h2OQeJw/otvnpSqLbY8bu60Rv1FnisMmN4k7jZw\nGSGWOjYnDtf/tcks4iv/wK+T/4bGQpaTMNyRlTdX4AW1nFXKlWjRxAMJAoGBAICd\nLwjwKaGFLawmC8UL0TQztaL4W3kBuvMkt+0mAtvr29oZ1SwEJZ/wm1i+sFGXD3GH\nA06GxYNssOmR4P354XQQyPz7balEFcq9sutM9cQKut2tGz6Y6aa2uY4t/xnOuB1v\npKKN6RPfkCFQzO/ZxrqGqOLzRYYhbiA7PJXVIIS5AoGAFnzYAsSUUYajQyMgJVe2\nT7PeY8BHdMZ3Byu2I4dyfiVfG78PJxVoNg7krYulKDkPCqPRnqyiTFqGYvawSR8k\naJp587psKI9GqAnVS+1I+ZIwq0KfWlUMxfCr27BHuMGdFERQiaiu4ibRoWP61gk/\n0URqDaVKKJs6Eq2+kfRvjZ8=\n-----END PRIVATE KEY-----\n",
  "client_email": "firebase-adminsdk-zfz0c@chaayos-test.iam.gserviceaccount.com",
  "client_id": "104047178116503091729",
  "auth_uri": "https://accounts.google.com/o/oauth2/auth",
  "token_uri": "https://oauth2.googleapis.com/token",
  "auth_provider_x509_cert_url": "https://www.googleapis.com/oauth2/v1/certs",
  "client_x509_cert_url": "https://www.googleapis.com/robot/v1/metadata/x509/firebase-adminsdk-zfz0c%40chaayos-test.iam.gserviceaccount.com"
}
